[
  {
    "id": 0,
    "eventName": "testing1",
    "eventDate": "2019-01-03",
    "eventStartTime": "13:00",
    "eventEndTime": "18:00"
  },
  {
    "id": 1,
    "eventName": "testing2",
    "eventDate": "2019-01-03",
    "eventStartTime": "13:00",
    "eventEndTime": "18:00"
  },
  {
    "id": 2,
    "eventName": "testing3",
    "eventDate": "2019-01-03",
    "eventStartTime": "13:00",
    "eventEndTime": "18:00"
  },
  {
    "id": 3,
    "eventName": "testing4",
    "eventDate": "2019-01-03",
    "eventStartTime": "13:00",
    "eventEndTime": "18:00"
  },
  {
    "eventName": "abc",
    "eventDate": "2019-01-01",
    "eventStartTime": "00:00",
    "eventEndTime": "16:15",
    "id": 4
  },
  {
    "eventName": "testing",
    "eventDate": "2019-01-03",
    "eventStartTime": "00:00",
    "eventEndTime": "20:00",
    "id": 5
  },
  {
    "eventName": "testing009",
    "eventDate": "2025-01-03",
    "eventStartTime": "01:04",
    "eventEndTime": "16:44",
    "id": 6
  },
  {
    "eventName": "testing009",
    "eventDate": "2019-01-03",
    "eventStartTime": "00:00",
    "eventEndTime": "16:30",
    "id": 7
  },
  {
    "eventName": "happy happy flay day",
    "eventDate": "2019-05-16",
    "eventStartTime": "11:30",
    "eventEndTime": "18:45",
    "id": 8
  },
  {
    "eventName": "testing112",
    "eventDate": "2010-01-01",
    "eventStartTime": "01:15",
    "eventEndTime": "13:02",
    "id": 9
  },
  {
    "eventName": "6660",
    "eventDate": "2010-01-01",
    "eventStartTime": "13:15",
    "eventEndTime": "18:20",
    "id": 10
  },
  {
    "eventName": "555",
    "eventDate": "2019-03-07",
    "eventStartTime": "18:07",
    "eventEndTime": "19:00",
    "id": 11
  },
  {
    "eventName": "test3",
    "eventDate": "2019-02-07",
    "eventStartTime": "19:07",
    "eventEndTime": "20:08",
    "id": 12
  },
  {
    "eventName": "test3",
    "eventDate": "2019-02-07",
    "eventStartTime": "19:07",
    "eventEndTime": "20:08",
    "id": 13
  },
  {
    "eventName": "testing6",
    "eventDate": "2019-02-04",
    "eventStartTime": "13:00",
    "eventEndTime": "14:00",
    "id": 14
  },
  {
    "eventName": "happy day",
    "eventDate": "2019-02-28",
    "eventStartTime": "14:02",
    "eventEndTime": "16:03",
    "id": 15
  },
  {
    "eventName": "hey hey",
    "eventDate": "2021-04-03",
    "eventStartTime": "03:00",
    "eventEndTime": "15:00",
    "id": 16
  },
  {
    "eventName": "hahaha",
    "eventDate": "2019-01-01",
    "eventStartTime": "01:00",
    "eventEndTime": "16:00",
    "id": 17
  },
  {
    "eventName": "223322",
    "eventDate": "2019-07-12",
    "eventStartTime": "01:01",
    "eventEndTime": "14:02",
    "id": 18
  },
  {
    "eventName": "pp",
    "eventDate": "2019-02-08",
    "eventStartTime": "09:00",
    "eventEndTime": "17:00",
    "id": 19
  },
  {
    "eventName": "g0g0",
    "eventDate": "2020-02-05",
    "eventStartTime": "01:01",
    "eventEndTime": "14:00",
    "id": 20
  },
  {
    "eventName": "990",
    "eventDate": "2020-03-03",
    "eventStartTime": "01:21",
    "eventEndTime": "14:02",
    "id": 21
  },
  {
    "eventName": "hohohoh",
    "eventDate": "2020-02-02",
    "eventStartTime": "02:00",
    "eventEndTime": "17:00",
    "id": 22
  }
]
